learned-3
…
library(spData)
library(spDataLarge)

##world_bank_bfspDataworld

world

## Simple feature collection with 177 features and 10 fields
## Geometry type: MULTIPOLYGON
## Dimension:     XY
## Bounding box:  xmin: -180 ymin: -90 xmax: 180 ymax: 83.64513
## Geodetic CRS:  WGS 84
## # A tibble: 177 x 11
##    iso_a2 name_long continent region_un subregion type  area_km2     pop lifeExp
##    <chr>  <chr>     <chr>     <chr>     <chr>     <chr>    <dbl>   <dbl>   <dbl>
##  1 FJ     Fiji      Oceania   Oceania   Melanesia Sove   1.93e4  8.86e5    70.0
##  2 TZ     Tanzania  Africa    Africa    Eastern  Sove   9.33e5  5.22e7    64.2
##  3 EH     Western  Africa    Africa    Northern Inde   9.63e4 NA         NA  
##  4 CA     Canada    North Am Americas  Northern Sove   1.00e7  3.55e7    82.0
##  5 US     United S North Am Americas  Northern Coun   9.51e6  3.19e8    78.8
##  6 KZ     Kazakhst Asia      Asia      Central  Sove   2.73e6  1.73e7    71.6
##  7 UZ     Uzbekist Asia      Asia      Central  Sove   4.61e5  3.08e7    71.0
##  8 PG     Papua Ne Oceania   Oceania   Melanesia Sove   4.65e5  7.76e6    65.2
##  9 ID     Indonesia Asia      Asia      South-Ea Sove   1.82e6  2.55e8    68.9
## 10 AR     Argentina South Am Americas  South Am Sove   2.78e6  4.30e7    76.3
## #  with 167 more rows, and 2 more variables: gdpPercap <dbl>,
## #   geom <MULTIPOLYGON []>

worldbank_df

## # A tibble: 177 x 7
##    name                 iso_a2    HDI urban_pop unemployment pop_growth literacy
##    <chr>                <chr>   <dbl>     <dbl>        <dbl>      <dbl>    <dbl>
##  1 Afghanistan          AF     NA       8609463        NA         3.18      NA  
##  2 Angola               AO      0.504  11649562        NA         3.49      66.0
##  3 Albania              AL     NA       1629715        17.5      -0.207     NA  
##  4 United Arab Emirates AE     NA       7734365        NA         0.715     NA  
##  5 Argentina            AR     NA      39372787         7.27      1.03      NA  
##  6 Armenia              AM     NA       1825455        17.5       0.438     NA  
##  7 Antarctica           AQ     NA            NA        NA        NA         NA  
##  8 French Southern and TF     NA            NA        NA        NA         NA  
##  9 Australia            AU     NA      20986610         6.08      1.54      NA  
## 10 Austria              AT     NA       5630521         5.62      0.731     NA  
## #  with 167 more rows

#
world_bk = left_join(world, worldbank_df)

## Joining, by = "iso_a2"

world_bk

## Simple feature collection with 181 features and 16 fields
## Geometry type: MULTIPOLYGON
## Dimension:     XY
## Bounding box:  xmin: -180 ymin: -90 xmax: 180 ymax: 83.64513
## Geodetic CRS:  WGS 84
## # A tibble: 181 x 17
##    iso_a2 name_long continent region_un subregion type  area_km2     pop lifeExp
##    <chr>  <chr>     <chr>     <chr>     <chr>     <chr>    <dbl>   <dbl>   <dbl>
##  1 FJ     Fiji      Oceania   Oceania   Melanesia Sove   1.93e4  8.86e5    70.0
##  2 TZ     Tanzania  Africa    Africa    Eastern  Sove   9.33e5  5.22e7    64.2
##  3 EH     Western  Africa    Africa    Northern Inde   9.63e4 NA         NA  
##  4 CA     Canada    North Am Americas  Northern Sove   1.00e7  3.55e7    82.0
##  5 US     United S North Am Americas  Northern Coun   9.51e6  3.19e8    78.8
##  6 KZ     Kazakhst Asia      Asia      Central  Sove   2.73e6  1.73e7    71.6
##  7 UZ     Uzbekist Asia      Asia      Central  Sove   4.61e5  3.08e7    71.0
##  8 PG     Papua Ne Oceania   Oceania   Melanesia Sove   4.65e5  7.76e6    65.2
##  9 ID     Indonesia Asia      Asia      South-Ea Sove   1.82e6  2.55e8    68.9
## 10 AR     Argentina South Am Americas  South Am Sove   2.78e6  4.30e7    76.3
## #  with 171 more rows, and 8 more variables: gdpPercap <dbl>,
## #   geom <MULTIPOLYGON []>, name <chr>, HDI <dbl>, urban_pop <dbl>,
## #   unemployment <dbl>, pop_growth <dbl>, literacy <dbl>
…
